Step,Temp,KinEng,PotEng,TotEng,Press,Pxx,Pyy,Pzz,Pxy,Pxz,Pyz,Ly,Lx,Lz,v_J2,Strain,SolidVol,surface_area,VolBox,1/2<111>,<100>,<110>,other,Total,J2_New
0.0,300.12916,0.03879472,-7.7447564,-7.7059617,0.0019087004,-2.947419,14.122498,-11.169353,10.787701,-31.563956,-5.3822145,349.40469,349.40038,349.40785,62.643501,0.0,42290676.0,24915.818359375,42656452.0,0.0,0.0,0.0,0.0,0.0,62.10633749606451
1000.0,299.97904,0.038775315,-7.7447011,-7.7059257,-1236.9622,-1500.7884,-1094.4928,-1115.6055,24.960282,-22.176695,-3.1374825,349.40469,349.74978,349.40785,400.39713,0.0009999989124225284,42331525.0,24998.01708984375,42699109.0,0.0,0.0,0.0,0.0,0.0,396.9502295357791
2000.0,300.05719,0.038785417,-7.7446553,-7.7058699,-2443.8422,-2986.1899,-2159.2797,-2186.0569,11.502425,-14.399058,-17.694341,349.40469,350.09918,349.40785,815.05422,0.0019999978248450567,42372374.0,25080.2158203125,42741766.0,0.0,0.0,0.0,0.0,0.0,808.0101847012658
3000.0,299.92699,0.038768587,-7.744563,-7.7057944,-3616.6558,-4412.4843,-3210.5731,-3226.9102,31.704917,-11.66111,-17.099585,349.40469,350.44858,349.40785,1195.6263,0.002999996737267363,42413223.0,25162.41455078125,42784423.0,0.0,0.0,0.0,0.0,0.0,1185.2529806599214
4000.0,299.68121,0.038736817,-7.7444364,-7.7056996,-4815.2316,-5875.8487,-4276.7022,-4293.144,28.857607,-17.988988,-3.5600327,349.40469,350.79798,349.40785,1592.0911,0.003999995649689891,42454072.0,25244.61328125,42827080.0,0.0,0.0,0.0,0.0,0.0,1578.2245763652159
5000.0,299.41028,0.038701797,-7.7442869,-7.7055851,-6033.661,-7368.6745,-5354.1805,-5378.1282,32.984543,-5.6214759,-1.0857303,349.40469,351.14738,349.40785,2003.4668,0.00499999456211242,42495314.0,25306.177734375,42869736.0,0.0,0.0,0.0,0.0,0.0,1985.9686272519896
6000.0,299.34283,0.038693078,-7.7441439,-7.7054508,-7250.7607,-8822.0609,-6461.5281,-6468.6931,16.628708,-10.290191,-7.0954342,349.40469,351.49678,349.40785,2357.2338,0.005999993474534948,42536556.0,25367.7421875,42912392.0,0.0,0.0,0.0,0.0,0.0,2336.588637118919
7000.0,299.22899,0.038678363,-7.743975,-7.7052967,-8493.3962,-10325.38,-7562.6046,-7592.2045,16.637551,-10.740523,2.5954908,349.40469,351.84618,349.40785,2748.3124,0.0069999923869574765,42577798.0,25429.306640625,42955048.0,0.0,0.0,0.0,0.0,0.0,2724.1755196757126
8000.0,298.83807,0.038627833,-7.7437502,-7.7051224,-9756.4439,-11840.998,-8705.7885,-8722.5456,15.390064,-29.745597,-6.6290072,349.40469,352.19558,349.40785,3127.4234,0.007999991299379783,42619040.0,25490.87109375,42997704.0,0.0,0.0,0.0,0.0,0.0,3099.8814025403776
9000.0,298.78961,0.038621569,-7.7435498,-7.7049282,-10967.832,-13284.272,-9801.9211,-9817.3033,28.053004,-5.2621548,-13.903686,349.40469,352.54498,349.40785,3475.1207,0.008999990211802311,42660536.0,25543.2548828125,43040361.0,0.0,0.0,0.0,0.0,0.0,3444.4532592720398
10000.0,298.41133,0.038572672,-7.7432873,-7.7047146,-12194.95,-14756.923,-10902.243,-10925.684,12.679415,-10.602823,-4.7769527,349.40469,352.89438,349.40785,3843.1291,0.00999998912422484,42702032.0,25595.638671875,43083018.0,0.0,0.0,0.0,0.0,0.0,3809.1440531935623
11000.0,298.37442,0.038567901,-7.7430491,-7.7044812,-13436.575,-16231.5,-12036.929,-12041.296,16.833854,-1.6865011,-11.289891,349.40469,353.24378,349.40785,4192.537,0.010999988036647368,42743528.0,25648.0224609375,43125675.0,0.0,0.0,0.0,0.0,0.0,4155.385919189346
12000.0,297.90295,0.038506959,-7.7427349,-7.7042279,-14688.681,-17727.719,-13163.896,-13174.427,12.910737,-2.4430105,-17.552001,349.40469,353.59318,349.40785,4558.7244,0.011999986949069896,42785024.0,25700.40625,43168332.0,0.0,0.0,0.0,0.0,0.0,4518.245756249873
13000.0,297.76242,0.038488794,-7.7424436,-7.7039548,-15919.672,-19198.915,-14267.664,-14292.437,18.331898,-9.1993216,-12.319896,349.40469,353.94258,349.40785,4919.0863,0.012999985861492203,42825683.0,25787.095703125,43210988.0,0.0,0.0,0.0,0.0,0.0,4875.223647592666
14000.0,297.30067,0.038429108,-7.7420914,-7.7036623,-17128.189,-20630.139,-15362.487,-15391.942,26.02929,-17.81864,0.12343415,349.40469,354.29198,349.40785,5253.2702,0.013999984773914731,42866342.0,25873.78515625,43253644.0,0.0,0.0,0.0,0.0,0.0,5206.23134114685
15000.0,297.40518,0.038442617,-7.7417933,-7.7033507,-18301.11,-22022.612,-16436.281,-16444.436,13.667224,-10.239055,-9.6069039,349.40469,354.64138,349.40785,5582.3609,0.01499998368633726,42907001.0,25960.474609375,43296300.0,0.0,0.0,0.0,0.0,0.0,5532.167060895756
16000.0,296.85097,0.03837098,-7.7413917,-7.7030207,-19444.372,-23386.122,-17473.994,-17473.001,21.599389,2.246559,6.6552435,349.40469,354.99078,349.40785,5912.7548,0.015999982598759566,42947660.0,26047.1640625,43338956.0,0.0,0.0,0.0,0.0,0.0,5859.370096819313
17000.0,297.03783,0.038395133,-7.7410678,-7.7026727,-20576.699,-24741.495,-18485.008,-18503.595,9.0203771,0.93962945,-9.4855584,349.40469,355.34018,349.40785,6247.2561,0.016999981511182094,42989310.0,26093.6162109375,43381613.0,0.0,0.0,0.0,0.0,0.0,6190.761720461869
18000.0,296.53752,0.038330463,-7.7406371,-7.7023066,-21718.907,-26077.504,-19537.649,-19541.569,16.519973,-3.2963312,-4.3163758,349.40469,355.68958,349.40785,6537.9651,0.017999980423604622,43030960.0,26140.068359375,43424270.0,0.0,0.0,0.0,0.0,0.0,6478.748282918655
19000.0,296.50627,0.038326424,-7.7402482,-7.7019218,-22967.357,-27547.969,-20661.969,-20692.133,24.655479,-22.124417,-4.3293581,349.40469,356.03898,349.40785,6871.2114,0.01899997933602715,43072610.0,26186.5205078125,43466927.0,0.0,0.0,0.0,0.0,0.0,6808.878135317779
20000.0,296.25689,0.038294189,-7.7398115,-7.7015173,-24231.315,-29027.936,-21826.408,-21839.601,27.660568,-5.156313,3.3772842,349.40469,356.38838,349.40785,7195.1087,0.019999978248449457,43114260.0,26232.97265625,43509584.0,0.0,0.0,0.0,0.0,0.0,7129.734617091765
21000.0,295.91316,0.038249759,-7.739343,-7.7010932,-25441.308,-30415.626,-22943.269,-22965.029,16.407025,-5.7829089,-10.902544,349.40469,356.73778,349.40785,7461.5862,0.020999977160871985,43155005.0,26317.87109375,43552240.0,0.0,0.0,0.0,0.0,0.0,7393.529925646327
22000.0,295.64676,0.038215324,-7.7388665,-7.7006511,-26553.891,-31746.385,-23943.058,-23972.23,30.432147,-16.589332,-9.1452317,349.40469,357.08718,349.40785,7789.0297,0.021999976073294514,43195750.0,26402.76953125,43594896.0,0.0,0.0,0.0,0.0,0.0,7717.714928458025
23000.0,295.43588,0.038188065,-7.7383796,-7.7001916,-27680.463,-33055.453,-24985.674,-25000.26,21.08636,-22.303953,-9.464613,349.40469,357.43659,349.40785,8062.6876,0.023000003606178154,43236495.0,26487.66796875,43637552.0,0.0,0.0,0.0,0.0,0.0,7988.586346547626
24000.0,295.07392,0.038141278,-7.7378555,-7.6997142,-28816.593,-34386.955,-26030.319,-26032.505,19.772219,-17.063649,-6.7938933,349.40469,357.78599,349.40785,8355.6744,0.024000002518600683,43277240.0,26572.56640625,43680208.0,0.0,0.0,0.0,0.0,0.0,8278.589844871069
25000.0,294.66345,0.038088221,-7.7373073,-7.6992191,-29953.15,-35701.185,-27067.226,-27091.04,17.099488,-14.07059,-8.8763396,349.40469,358.13539,349.40785,8622.1756,0.02500000143102299,43317836.0,26662.08154296875,43722864.0,0.0,0.0,0.0,0.0,0.0,8542.303829959576
26000.0,294.74077,0.038098215,-7.7368047,-7.6987065,-31058.21,-36997.48,-28082.877,-28094.274,30.500968,-8.2475647,-12.921834,349.40469,358.48479,349.40785,8909.1067,0.026000000343445517,43358432.0,26751.5966796875,43765520.0,0.0,0.0,0.0,0.0,0.0,8826.238030136381
27000.0,294.51381,0.038068879,-7.7362455,-7.6981766,-32186.009,-38293.942,-29136.674,-29127.413,22.018724,3.4545097,-3.8628735,349.40469,358.83419,349.40785,9161.9861,0.026999999255868046,43399028.0,26841.11181640625,43808176.0,0.0,0.0,0.0,0.0,0.0,9076.417408693545
28000.0,294.16415,0.038023681,-7.7356531,-7.6976294,-33293.908,-39576.298,-30144.906,-30160.52,20.473814,-1.1345974,7.6634162,349.40469,359.18359,349.40785,9423.6711,0.027999998168290574,43439624.0,26930.626953125,43850832.0,0.0,0.0,0.0,0.0,0.0,9335.301307023465
29000.0,293.75103,0.037970282,-7.7350354,-7.6970652,-34388.769,-40819.499,-31163.935,-31182.873,23.061123,-5.2162612,5.0818066,349.40469,359.53299,349.40785,9646.1997,0.02899999708071288,43480928.0,26988.6689453125,43893489.0,0.0,0.0,0.0,0.0,0.0,9555.533729144237
30000.0,293.4746,0.03793455,-7.7344186,-7.696484,-35501.694,-42106.131,-32188.529,-32210.422,13.392801,-24.437206,1.7315151,349.40469,359.88239,349.40785,9906.7913,0.02999999599313541,43522232.0,27046.7109375,43936146.0,0.0,0.0,0.0,0.0,0.0,9813.461320302915
31000.0,293.57402,0.037947402,-7.7338333,-7.6958859,-36603.754,-43378.163,-33197.315,-33235.783,23.078393,-6.8191695,-10.287481,349.40469,360.23179,349.40785,10161.77,0.030999994905557937,43563536.0,27104.7529296875,43978803.0,0.0,0.0,0.0,0.0,0.0,10065.818144680292
32000.0,292.96478,0.037868651,-7.7331391,-7.6952704,-37752.303,-44691.508,-34277.826,-34287.574,22.79799,0.017228279,-12.23803,349.40469,360.58119,349.40785,10408.908,0.031999993817980465,43604840.0,27162.794921875,44021460.0,0.0,0.0,0.0,0.0,0.0,10310.397881276995
33000.0,292.7585,0.037841987,-7.7324795,-7.6946375,-38889.494,-45965.545,-35350.052,-35352.885,26.331365,-13.313093,-3.2083993,349.40469,360.93059,349.40785,10614.201,0.032999992730402994,43645557.0,27248.2578125,44064116.0,0.0,0.0,0.0,0.0,0.0,10513.378159111531
34000.0,292.37448,0.037792348,-7.73178,-7.6939877,-39988.175,-47237.598,-36348.584,-36378.343,13.121444,-12.117813,9.8550495,349.40469,361.27999,349.40785,10874.222,0.0339999916428253,43686274.0,27333.720703125,44106772.0,0.0,0.0,0.0,0.0,0.0,10770.551103327807
35000.0,292.44694,0.037801715,-7.7311232,-7.6933215,-41044.53,-48425.386,-37347.581,-37360.622,8.1966456,-17.531471,-9.4123084,349.40469,361.62939,349.40785,11071.353,0.03499999055524783,43726991.0,27419.18359375,44149428.0,0.0,0.0,0.0,0.0,0.0,10965.418464511544
36000.0,292.27354,0.037779301,-7.7304188,-7.6926395,-42070.4,-49592.368,-38298.293,-38320.54,28.757002,-14.217302,-13.724075,349.40469,361.97879,349.40785,11283.13,0.03599998946767036,43767708.0,27504.646484375,44192084.0,0.0,0.0,0.0,0.0,0.0,11174.778251372802
37000.0,291.69957,0.03770511,-7.7296474,-7.6919423,-43044.192,-50710.211,-39188.062,-39234.302,27.907451,-27.08832,-13.071359,349.40469,362.32819,349.40785,11499.318,0.036999988380092885,43807348.0,27635.40234375,44234741.0,4.471414566040039,0.0,0.0,0.0,4.471414566040039,11388.212386926012
38000.0,291.53068,0.037683279,-7.7289136,-7.6912303,-44037.051,-51810.254,-40148.206,-40152.693,11.31814,-9.2712621,-5.8669016,349.40469,362.67759,349.40785,11659.837,0.037999987292515414,43846988.0,27766.158203125,44277398.0,8.942829132080078,0.0,0.0,0.0,8.942829132080078,11546.49451218782
39000.0,291.17196,0.03763691,-7.7281399,-7.690503,-45106.331,-53011.557,-41142.663,-41164.775,15.372573,0.6845223,8.4856056,349.40469,363.02699,349.40785,11857.893,0.03899998620493772,43886628.0,27896.9140625,44320055.0,13.414243698120119,0.0,0.0,0.0,13.414243698120119,11741.928997037661
40000.0,290.92743,0.037605303,-7.7273652,-7.6897599,-46153.104,-54156.918,-42132.546,-42169.848,18.563233,1.030145,-1.9305651,349.40469,363.37639,349.40785,12005.808,0.03999998511736025,43926268.0,28027.669921875,44362712.0,17.885658264160156,0.0,0.0,0.0,17.885658264160156,11887.693875986302
41000.0,290.61126,0.037564435,-7.7265654,-7.6890009,-47221.653,-55356.346,-43156.848,-43151.764,6.4678331,-3.3959017,-2.3080682,349.40469,363.72579,349.40785,12202.048,0.04099998402978278,43966008.0,28156.79833984375,44405368.0,19.50837230682373,0.0,0.0,0.0,19.50837230682373,12081.317285432338
42000.0,290.30199,0.037524459,-7.7257511,-7.6882266,-48211.614,-56461.854,-44071.931,-44101.058,-11.700607,3.7105598,0.58458852,349.40469,364.07519,349.40785,12375.403,0.041999982942205305,44005748.0,28285.9267578125,44448024.0,21.131086349487305,0.0,0.0,0.0,21.131086349487305,12252.262683633451
43000.0,289.98452,0.037483422,-7.7249213,-7.6874378,-49175.401,-57532.026,-44989.695,-45004.482,-0.49545322,-1.9339506,-12.570102,349.40469,364.42459,349.40785,12534.964,0.04299998185462783,44045488.0,28415.05517578125,44490680.0,22.75380039215088,0.0,0.0,0.0,22.75380039215088,12409.534006727521
44000.0,289.87782,0.03746963,-7.7241043,-7.6866347,-50164.121,-58614.926,-45935.669,-45941.767,-10.547313,-6.2445214,5.3509043,349.40469,364.77399,349.40785,12676.231,0.04399998076705014,44085228.0,28544.18359375,44533336.0,24.376514434814453,0.0,0.0,0.0,24.376514434814453,12548.678900131532
45000.0,289.76374,0.037454884,-7.7232719,-7.685817,-51136.628,-59663.878,-46854.753,-46891.253,-1.3209816,-10.903978,10.071542,349.40469,365.12339,349.40785,12790.94,0.044999979679472446,44122581.0,28780.7021484375,44575993.0,36.739115715026855,1.6433669328689575,0.0,0.0,38.38248348236084,12660.834862750899
46000.0,289.36268,0.037403043,-7.7223883,-7.6849852,-52079.003,-60707.745,-47748.286,-47780.979,-18.23794,-19.01719,19.070142,349.40469,365.47279,349.40785,12943.266,0.045999978591894974,44159934.0,29017.220703125,44618650.0,49.10171699523926,3.286733865737915,0.0,0.0,52.38845252990723,12810.19870176359
47000.0,289.20437,0.03738258,-7.7215229,-7.6841403,-52963.361,-61665.054,-48611.663,-48613.367,-0.91701645,-32.575662,4.352468,349.40469,365.82219,349.40785,13052.664,0.0469999775043175,44197287.0,29253.7392578125,44661307.0,61.46431827545166,4.930100798606873,0.0,0.0,66.39442157745361,12917.0500299637
48000.0,289.08456,0.037367094,-7.7206498,-7.6832827,-53817.096,-62592.866,-49425.05,-49433.371,-6.9230594,-59.585055,3.9435528,349.40469,366.17159,349.40785,13164.069,0.04799997641674003,44234640.0,29490.2578125,44703964.0,73.82691955566406,6.57346773147583,0.0,0.0,80.400390625,13025.866188290596
49000.0,288.92793,0.037346847,-7.7197596,-7.6824127,-54666.56,-63502.259,-50245.203,-50252.218,-12.521743,-57.151855,13.160978,349.40469,366.521,349.40785,13253.957,0.04900000394962367,44269291.0,29841.09033203125,44746620.0,67.98848342895508,6.500999331474304,0.0,0.0,74.4894847869873,13112.572063196887
50000.0,288.8245,0.037333478,-7.7188644,-7.6815309,-55476.468,-64375.21,-51025.154,-51029.041,-7.1240519,-60.452224,-1.4088589,349.40469,366.8704,349.40785,13348.529,0.0500000028620462,44303942.0,30191.9228515625,44789276.0,62.150047302246094,6.428530931472778,0.0,0.0,68.57857894897461,13203.885113064074
51000.0,288.768,0.037326175,-7.7179636,-7.6806374,-56297.574,-65250.967,-51814.315,-51827.439,-25.82061,-74.79647,-0.92488439,349.40469,367.2198,349.40785,13430.794,0.05100000177446873,44338593.0,30542.75537109375,44831932.0,56.31161117553711,6.356062531471252,0.0,0.0,62.667673110961914,13282.999020270687
52000.0,288.59677,0.037304042,-7.7170364,-7.6797324,-57109.346,-66103.571,-52602.454,-52622.011,-36.860154,-80.716839,-6.0663669,349.40469,367.5692,349.40785,13492.229,0.05200000068689126,44373244.0,30893.587890625,44874588.0,50.473175048828125,6.283594131469727,0.0,0.0,56.75676727294922,13341.492283358144
53000.0,288.40157,0.037278809,-7.7160944,-7.6788156,-57950.834,-66996.857,-53422.381,-53433.265,-48.083365,-97.551725,-8.0515264,349.40469,367.9186,349.40785,13570.352,0.05299999959931356,44408556.0,31231.93359375,44917245.0,40.203370332717896,4.712695598602295,0.0,0.0,44.916064500808716,13416.667400943938
54000.0,288.29014,0.037264406,-7.7151514,-7.677887,-58791.174,-67891.21,-54243.546,-54238.765,-54.17386,-102.21797,0.4979306,349.40469,368.268,349.40785,13651.526,0.05399999851173609,44443868.0,31570.279296875,44959902.0,29.933565616607666,3.1417970657348633,0.0,0.0,33.07536172866821,13494.838568433
55000.0,288.2085,0.037253854,-7.7142007,-7.6769468,-59593.744,-68724.683,-55022.902,-55033.646,-60.867107,-101.09651,-27.442601,349.40469,368.6174,349.40785,13698.019,0.0549999974241584,44479180.0,31908.625,45002559.0,19.66376090049744,1.5708985328674316,0.0,0.0,21.23465895652771,13538.711270717295
56000.0,288.12321,0.03724283,-7.7132383,-7.6759955,-60395.529,-69565.079,-55798.965,-55822.544,-87.574439,-116.05116,-24.108792,349.40469,368.9668,349.40785,13756.708,0.055999996336580926,44514492.0,32246.970703125,45045216.0,9.393956184387209,0.0,0.0,0.0,9.393956184387209,13594.626079988962
57000.0,287.81672,0.037203212,-7.712236,-7.6750328,-61186.784,-70391.198,-56583.013,-56586.14,-108.54108,-126.63298,-32.9689,349.40469,369.3162,349.40785,13809.762,0.056999995249003454,44548403.0,32655.60302734375,45087872.0,10.881758928298952,0.0,0.0,0.0,10.881758928298952,13644.530460654387
58000.0,287.69706,0.037187745,-7.711247,-7.6740592,-61950.856,-71185.473,-57335.918,-57331.176,-131.76935,-141.42258,-17.810581,349.40469,369.6656,349.40785,13856.007,0.05799999416142598,44582314.0,33064.2353515625,45130528.0,12.369561672210693,0.0,0.0,0.0,12.369561672210693,13687.69394544194
59000.0,287.76159,0.037196086,-7.7102714,-7.6730753,-62694.858,-71946.412,-58070.22,-58067.942,-142.1417,-139.3776,-31.676284,349.40469,370.015,349.40785,13881.723,0.05899999307384851,44616225.0,33472.86767578125,45173184.0,13.857364416122437,0.0,0.0,0.0,13.857364416122437,13710.569455446732
60000.0,287.65414,0.037182198,-7.7092632,-7.672081,-63457.732,-72741.275,-58812.596,-58819.324,-146.792,-148.87717,-48.678131,349.40469,370.3644,349.40785,13930.279,0.05999999198627082,44650136.0,33881.5,45215840.0,15.34516716003418,0.0,0.0,0.0,15.34516716003418,13755.994621971946
61000.0,287.65346,0.037182109,-7.7082585,-7.6710764,-64213.334,-73507.442,-59566.378,-59566.181,-152.9893,-164.98108,-42.073697,349.40469,370.7138,349.40785,13946.799,0.060999990898693346,44681396.0,34378.416015625,45258496.0,48.235159397125244,3.579042911529541,0.0,0.0,51.81420373916626,13768.960617944618
62000.0,287.55439,0.037169303,-7.7072312,-7.6700619,-64895.253,-74206.388,-60221.315,-60258.055,-175.81914,-181.15806,-55.417269,349.40469,371.0632,349.40785,13973.912,0.061999989811115874,44712656.0,34875.33203125,45301152.0,81.12515163421631,7.158085823059082,0.0,0.0,88.28324031829834,13792.38038428409
63000.0,287.73662,0.037192858,-7.7062312,-7.6690383,-65547.444,-74868.643,-60884.735,-60888.955,-203.49459,-196.56884,-51.234112,349.40469,371.4126,349.40785,13990.665,0.0629999887235384,44743916.0,35372.248046875,45343808.0,114.01514387130736,10.737128734588623,0.0,0.0,124.75227689743042,13805.570532235404
64000.0,287.69774,0.037187832,-7.7051941,-7.6680063,-66160.803,-75459.767,-61498.117,-61524.524,-233.55716,-225.06964,-81.359646,349.40469,371.762,349.40785,13960.486,0.06399998763596093,44775176.0,35869.1640625,45386464.0,146.90513610839844,14.316171646118164,0.0,0.0,161.2213134765625,13772.459068314642
65000.0,287.91009,0.037215281,-7.7041813,-7.6669661,-66785.798,-76088.129,-62118.079,-62151.184,-277.93441,-234.39645,-125.51168,349.40469,372.1114,349.40785,13969.421,0.06499998654838324,44802505.0,36580.7998046875,45429121.0,180.06074142456055,17.30261754989624,0.0,0.0,197.36336517333984,13776.73704493655
66000.0,288.14506,0.037245654,-7.7031636,-7.665918,-67391.486,-76680.832,-62725.158,-62768.466,-323.55817,-266.08267,-144.87364,349.40469,372.4608,349.40785,13955.206,0.06599998546080577,44829834.0,37292.435546875,45471778.0,213.21634674072266,20.289063453674316,0.0,0.0,233.5054168701172,13758.194553461357
67000.0,288.52867,0.037295239,-7.7021577,-7.6648624,-67914.464,-77151.52,-63285.479,-63306.392,-366.51001,-313.03912,-174.11537,349.40469,372.8102,349.40785,13884.0,0.0669999843732283,44857163.0,38004.0712890625,45514435.0,246.37195205688477,23.275509357452393,0.0,0.0,269.64746856689453,13683.5017526198
68000.0,288.50903,0.0372927,-7.7010929,-7.6638002,-68440.143,-77663.243,-63803.926,-63853.26,-423.33182,-341.19488,-207.58709,349.40469,373.1596,349.40785,13871.391,0.06799998328565082,44884492.0,38715.70703125,45557092.0,279.5275573730469,26.26195526123047,0.0,0.0,305.7895202636719,13666.595277160623
69000.0,289.10606,0.037369872,-7.7001021,-7.6627323,-68870.151,-78048.2,-64249.285,-64312.968,-484.6916,-383.53131,-235.92563,349.40469,373.509,349.40785,13814.789,0.06899998219807335,44904349.0,39753.51953125,45599748.0,387.94115447998047,39.23453712463379,0.0,0.0,427.17569732666016,13604.11260644162
70000.0,289.6732,0.037443181,-7.6991024,-7.6616592,-69270.375,-78401.999,-64699.904,-64709.221,-519.27497,-398.28981,-267.50806,349.40469,373.8584,349.40785,13752.068,0.06999998111049566,44924206.0,40791.33203125,45642404.0,496.35475158691406,52.20711898803711,0.0,0.0,548.5618743896484,13535.674758893241
71000.0,290.2402,0.037516471,-7.6980985,-7.660582,-69618.195,-78692.55,-65095.922,-65066.115,-588.01348,-422.81981,-311.63076,349.40469,374.2078,349.40785,13679.89,0.07099998002291819,44944063.0,41829.14453125,45685060.0,604.7683486938477,65.17970085144043,0.0,0.0,669.9480514526367,13458.006577928758
72000.0,291.27659,0.037650435,-7.6971515,-7.6595011,-69910.668,-78908.188,-65433.237,-65390.578,-629.6769,-444.29758,-324.41532,349.40469,374.5572,349.40785,13573.812,0.07199997893534071,44963920.0,42866.95703125,45727716.0,713.1819458007812,78.15228271484375,0.0,0.0,791.334228515625,13347.08684910132
73000.0,292.00813,0.037744995,-7.6961626,-7.6584176,-70141.516,-79081.288,-65696.708,-65646.552,-723.061,-467.69832,-352.91461,349.40469,374.9066,349.40785,13506.263,0.07299997784776324,44976404.0,44240.36328125,45770373.0,811.2230682373047,72.71073913574219,0.8489614725112915,1.9323598146438596,886.7151489257812,13271.972706411025
74000.0,292.78774,0.037845766,-7.6951779,-7.6573322,-70348.909,-79184.836,-65964.856,-65897.033,-799.43794,-474.1265,-355.73957,349.40469,375.256,349.40785,13365.644,0.07399997676018555,44988888.0,45613.76953125,45813030.0,909.2641906738281,67.26919555664062,1.697922945022583,3.8647196292877193,982.0960693359375,13125.206103239014
75000.0,293.66636,0.037959338,-7.6942045,-7.6562452,-70520.061,-79279.193,-66192.215,-66088.774,-895.54295,-455.90287,-356.90915,349.40469,375.6054,349.40785,13268.199,0.07499997567260808,45001372.0,46987.17578125,45855687.0,1007.3053131103516,61.82765197753906,2.5468844175338745,5.797079443931579,1077.4769897460938,13021.00563816715
76000.0,294.73313,0.038097228,-7.693255,-7.6551577,-70626.529,-79273.74,-66366.55,-66239.298,-981.58577,-452.76861,-369.33716,349.40469,375.95481,349.40785,13121.317,0.07600000320549172,45013856.0,48360.58203125,45898344.0,1105.346435546875,56.3861083984375,3.395845890045166,7.729439258575439,1172.85791015625,12868.461528118572
77000.0,295.86895,0.038244044,-7.6923143,-7.6540703,-70684.153,-79247.401,-66481.246,-66323.812,-1056.6019,-447.90484,-324.53495,349.40469,376.30421,349.40785,13010.625,0.07700000211791425,45018393.0,50017.7451171875,45941001.0,1266.9568176269531,66.86687850952148,4.257331609725952,5.797079443931579,1343.8781433105469,12749.33973305512
78000.0,297.219,0.038418551,-7.6914024,-7.6529838,-70697.129,-79151.274,-66546.763,-66393.352,-1132.9328,-436.26382,-325.03266,349.40469,376.65361,349.40785,12867.378,0.07800000103033677,45022930.0,51674.908203125,45983658.0,1428.5671997070312,77.34764862060547,5.118817329406738,3.8647196292877193,1514.8983764648438,12598.542268593335
79000.0,298.82645,0.038626331,-7.6905252,-7.6518988,-70661.042,-78997.777,-66573.571,-66411.779,-1209.2778,-418.15008,-292.45374,349.40469,377.00301,349.40785,12710.838,0.07899999994275908,45027467.0,53332.0712890625,46026315.0,1590.1775817871094,87.82841873168945,5.980303049087525,1.9323598146438599,1685.9186096191406,12434.9915605311
80000.0,300.23098,0.038807881,-7.6896238,-7.6508159,-70578.334,-78832.838,-66540.833,-66361.33,-1243.5002,-394.39531,-292.99644,349.40469,377.35241,349.40785,12597.426,0.07999999885518161,45032004.0,54989.234375,46068972.0,1751.7879638671875,98.30918884277344,6.841788768768311,0.0,1856.9388427734373,12313.870125465442
81000.0,302.38817,0.039086719,-7.688823,-7.6497363,-70381.303,-78494.526,-66385.931,-66263.451,-1282.2203,-414.5696,-292.92545,349.40469,377.70181,349.40785,12402.477,0.08099999776760414,45024843.0,57074.7333984375,46111628.0,1869.0378723144531,100.09712600708008,5.131341576576234,0.0,1974.2663269042966,12110.168388244958
82000.0,304.27617,0.039330762,-7.687992,-7.6486612,-70105.313,-78127.914,-66149.076,-66038.95,-1278.3058,-422.94806,-327.8212,349.40469,378.05121,349.40785,12271.312,0.08199999668002667,45017682.0,59160.232421875,46154284.0,1986.2877807617188,101.88506317138672,3.4208943843841557,0.0,2091.5938110351562,11969.116915317849
83000.0,306.18066,0.039576936,-7.6871683,-7.6475914,-69757.669,-77679.571,-65837.6,-65755.836,-1220.5697,-460.17451,-374.92373,349.40469,378.40061,349.40785,12113.363,0.08299999559244897,45010521.0,61245.7314453125,46196940.0,2103.5376892089844,103.67300033569336,1.7104471921920776,0.0,2208.9212951660156,11802.270446746537
84000.0,308.7567,0.039909915,-7.6864379,-7.646528,-69298.168,-77141.058,-65418.197,-65335.251,-1166.4031,-442.80886,-330.57322,349.40469,378.75001,349.40785,11975.069,0.0839999945048715,45003360.0,63331.23046875,46239596.0,2220.78759765625,105.4609375,0.0,0.0,2326.248779296875,11654.910246876723
85000.0,311.10405,0.040213335,-7.6856858,-7.6454725,-68724.545,-76489.525,-64898.357,-64785.755,-1103.6997,-483.46854,-310.31677,349.40469,379.09941,349.40785,11845.574,0.08499999341729403,44982011.0,65937.0712890625,46282252.0,2359.6725463867188,130.4936180114746,0.0,0.0,2490.1663208007812,11512.787665762547
86000.0,313.57451,0.040532666,-7.6849584,-7.6444257,-68117.605,-75799.541,-64326.283,-64226.99,-1016.4059,-510.31328,-297.25594,349.40469,379.44881,349.40785,11701.722,0.08599999232971633,44960662.0,68542.912109375,46324908.0,2498.5574951171875,155.52629852294922,0.0,0.0,2654.0838623046875,11357.111980880005
87000.0,316.81296,0.040951269,-7.6843401,-7.6433889,-67410.848,-74949.414,-63705.901,-63577.23,-901.75057,-568.09814,-307.4374,349.40469,379.79821,349.40785,11470.443,0.08699999124213886,44939313.0,71148.7529296875,46367564.0,2637.4424438476562,180.55897903442383,0.0,0.0,2818.0014038085938,11117.121188977255
88000.0,320.4437,0.041420579,-7.683785,-7.6423644,-66586.869,-73967.374,-62943.123,-62850.111,-803.94104,-622.73366,-337.72368,349.40469,380.14761,349.40785,11225.537,0.08799999015456139,44917964.0,73754.59375,46410220.0,2776.327392578125,205.59165954589844,0.0,0.0,2981.9189453125,10864.59548880975
89000.0,324.00514,0.04188093,-7.6832342,-7.6413533,-65673.918,-72910.577,-62103.339,-62007.838,-659.36617,-653.39666,-411.60994,349.40469,380.49701,349.40785,10996.861,0.08899998906698392,44881302.0,76991.439453125,46452877.0,3134.1725463867188,207.91504287719727,1.0663251876831055,0.0,3343.15380859375,10624.819633733816
90000.0,327.92634,0.042387785,-7.6827448,-7.640357,-64631.937,-71692.578,-61171.767,-61031.465,-486.1805,-679.55347,-483.82651,349.40469,380.84641,349.40785,10722.873,0.08999998797940645,44844640.0,80228.28515625,46495534.0,3492.0177001953125,210.2384262084961,2.132650375366211,0.0,3704.388671875,10342.141235558665
91000.0,332.65502,0.042999014,-7.6823761,-7.6393771,-63535.725,-70455.407,-60139.355,-60012.412,-264.95066,-735.2237,-523.12072,349.40469,381.19581,349.40785,10507.132,0.09099998689182875,44807978.0,83465.130859375,46538191.0,3849.8628540039062,212.5618095397949,3.1989755630493164,0.0,4065.62353515625,10116.494203633656
92000.0,336.75169,0.043528551,-7.6819426,-7.6384141,-62406.95,-69162.816,-59076.86,-58981.175,-54.860768,-772.08163,-636.87004,349.40469,381.54521,349.40785,10281.775,0.09199998580425128,44771316.0,86701.9765625,46580848.0,4207.7080078125,214.88519287109372,4.265300750732422,0.0,4426.8583984375,9882.357606840906
93000.0,341.56371,0.044150552,-7.6816191,-7.6374686,-61125.038,-67748.502,-57817.802,-57808.811,181.44061,-796.10739,-725.09432,349.40469,381.89461,349.40785,10113.633,0.09299998471667381,44716719.0,90864.53515625,46623504.0,4550.6690673828125,245.97216796874997,3.1989755630493164,0.0,4799.8402099609375,9700.010641202065
94000.0,346.48181,0.044786267,-7.6813292,-7.6365429,-59688.472,-66148.737,-56460.52,-56456.158,442.5516,-790.21484,-812.91962,349.40469,382.24401,349.40785,9917.0163,0.09399998362909634,44662122.0,95027.09375,46666160.0,4893.630126953125,277.05914306640625,2.132650375366211,0.0,5172.822021484375,9491.138586645839
95000.0,352.37353,0.045547831,-7.6811872,-7.6356393,-58108.705,-64348.927,-54998.107,-54979.08,707.79726,-761.71591,-924.73556,349.40469,382.59341,349.40785,9665.6647,0.09499998254151887,44607525.0,99189.65234375,46708816.0,5236.5911865234375,308.1461181640625,1.0663251876831055,0.0,5545.8038330078125,9230.835132855165
96000.0,358.49812,0.046339496,-7.6811004,-7.6347609,-56361.568,-62349.955,-53399.69,-53335.06,1027.5593,-741.73378,-960.75538,349.40469,382.94281,349.40785,9395.5928,0.09599998145394117,44552928.0,103352.2109375,46751472.0,5579.55224609375,339.23309326171875,0.0,0.0,5918.78564453125,8953.753788452232
97000.0,365.40848,0.04723273,-7.6811419,-7.6339092,-54501.499,-60251.748,-51622.526,-51630.223,1338.4236,-684.30537,-990.94679,349.40469,383.29221,349.40785,9171.8043,0.0969999803663637,44471306.0,108944.71875,46794129.0,6094.4761962890625,349.8997116088867,0.0,0.0,6444.376220703125,8716.523297130198
98000.0,372.45026,0.048142951,-7.6812296,-7.6330866,-52474.637,-57977.836,-49711.204,-49734.871,1697.4957,-589.53274,-1004.0262,349.40469,383.64161,349.40785,8991.855,0.09799997927878623,44389684.0,114537.2265625,46836786.0,6609.400146484375,360.5663299560547,0.0,0.0,6969.966796875,8522.053627330877
99000.0,380.36795,0.049166392,-7.6814619,-7.6322955,-50237.546,-55476.768,-47556.304,-47679.567,2050.0233,-532.025,-953.95303,349.40469,383.99101,349.40785,8829.4773,0.09899997819120876,44308062.0,120129.734375,46879443.0,7124.3240966796875,371.23294830322266,0.0,0.0,7495.557373046875,8345.172267426313
100000.0,388.88809,0.050267706,-7.6818064,-7.6315387,-47811.688,-52771.4,-45231.476,-45432.187,2394.2417,-482.68893,-901.54771,349.40469,384.34041,349.40785,8701.2587,0.09999997710363129,44226440.0,125722.2421875,46922100.0,7639.248046875,381.8995666503906,0.0,0.0,8021.14794921875,8201.37410346144
101000.0,396.96787,0.051312098,-7.6821308,-7.6308187,-45128.13,-49851.942,-42607.672,-42924.778,2772.8469,-471.0467,-922.79342,349.40469,384.68981,349.40785,8750.3798,0.1009999760160536,44116173.0,132253.220703125,46964756.0,7702.2786865234375,405.4300765991211,0.8926916718482971,0.0,8108.6014404296875,8219.637488854523
102000.0,406.16397,0.052500787,-7.6826391,-7.6301383,-42344.945,-46779.732,-39966.99,-40288.114,3044.7581,-447.32468,-893.31415,349.40469,385.03922,349.40785,8668.0347,0.10200000354893723,44005906.0,138784.19921875,47007412.0,7765.309326171875,428.96058654785156,1.7853833436965942,0.0,8196.054931640625,8114.565426680759
103000.0,415.10036,0.053655906,-7.6831556,-7.6294997,-39391.992,-43547.388,-37123.749,-37504.837,3406.9134,-377.77305,-897.5629,349.40469,385.38862,349.40785,8753.6601,0.10300000246135976,43895639.0,145315.177734375,47050068.0,7828.3399658203125,452.49109649658203,2.6780750155448914,0.0,8283.508422851562,8166.778923216515
104000.0,423.76975,0.054776512,-7.6836809,-7.6289044,-36378.404,-40246.319,-34216.486,-34672.406,3733.0515,-275.98125,-866.60098,349.40469,385.73802,349.40785,8837.7676,0.10400000137378229,43785372.0,151846.15625,47092724.0,7891.37060546875,476.0216064453125,3.5707666873931885,0.0,8370.9619140625,8217.08555265453
105000.0,431.47809,0.055772892,-7.6841255,-7.6283526,-33414.946,-36994.203,-31377.539,-31873.095,4021.32,-181.68578,-878.61988,349.40469,386.08742,349.40785,8940.7552,0.1050000002862046,43681838.0,157387.94921875,47135380.0,7920.9677734375,470.72845458984375,8.047459781169891,0.0,8399.74267578125,8285.678830722432
106000.0,439.38312,0.056794697,-7.6846377,-7.627843,-30624.346,-33827.653,-28785.864,-29259.523,4315.2449,-16.306221,-879.87606,349.40469,386.43682,349.40785,9024.5918,0.10599999919862713,43578304.0,162929.7421875,47178036.0,7950.56494140625,465.435302734375,12.524152874946594,0.0,8428.5234375,8336.006291917434
107000.0,446.19358,0.057675017,-7.6850492,-7.6273742,-27957.183,-30840.798,-26347.862,-26682.889,4520.434,87.716555,-903.98837,349.40469,386.78622,349.40785,9086.8641,0.10699999811104965,43474770.0,168471.53515625,47220692.0,7980.162109375,460.14215087890625,17.000845968723297,0.0,8457.30419921875,8366.021547688395
108000.0,452.66854,0.058511972,-7.6854552,-7.6269432,-25575.699,-28184.286,-24158.46,-24384.353,4619.1733,222.78943,-877.24737,349.40469,387.13562,349.40785,9045.2629,0.10799999702347218,43371236.0,174013.328125,47263348.0,8009.75927734375,454.8489990234375,21.4775390625,0.0,8486.0849609375,8300.39022876552
109000.0,458.05986,0.059208855,-7.6857547,-7.6265459,-23493.184,-25846.201,-22271.832,-22361.52,4670.3147,301.37022,-847.80933,349.40469,387.48502,349.40785,8962.5841,0.10899999593589471,43308186.0,177772.20703125,47306005.0,8262.220825195312,490.98089599609375,18.96525001525879,0.0,8772.166259765625,8205.158293190107
110000.0,463.58368,0.059922863,-7.6860999,-7.626177,-21663.742,-23841.872,-20535.433,-20613.921,4622.6485,369.72522,-766.76839,349.40469,387.83442,349.40785,8772.6684,0.10999999484831702,43245136.0,181531.0859375,47348662.0,8514.682373046875,527.11279296875,16.452960968017578,0.0,9058.24755859375,8012.375049603354
111000.0,469.16359,0.060644123,-7.6864767,-7.6258326,-20160.276,-22165.296,-19171.312,-19144.221,4503.2601,436.09715,-720.37696,349.40469,388.18382,349.40785,8485.9418,0.11099999376073955,43182086.0,185289.96484375,47391319.0,8767.143920898438,563.2446899414062,13.940671920776367,0.0,9344.328857421875,7732.231900922506
112000.0,473.76818,0.061239313,-7.6867469,-7.6255076,-18992.558,-20837.121,-18099.562,-18040.992,4242.7877,446.85994,-707.18306,349.40469,388.53322,349.40785,7985.0559,0.11199999267316185,43119036.0,189048.84375,47433976.0,9019.60546875,599.3765869140625,11.428382873535156,0.0,9630.41015625,7258.677046472183
113000.0,478.30783,0.061826108,-7.6870236,-7.6251975,-18143.207,-19910.77,-17276.311,-17242.541,3903.0713,468.00154,-666.02424,349.40469,388.88262,349.40785,7397.3116,0.11299999158558438,43095005.0,191447.859375,47476632.0,8918.1943359375,606.2379760742188,9.929952025413513,0.0,9534.362060546875,6714.612367375975
114000.0,482.2587,0.062336798,-7.6872345,-7.6248977,-17557.849,-19244.758,-16710.415,-16718.374,3442.6723,472.85682,-651.74302,349.40469,389.23202,349.40785,6625.9983,0.11399999049800691,43070974.0,193846.875,47519288.0,8816.783203125,613.099365234375,8.43152117729187,0.0,9438.31396484375,6005.733934888592
115000.0,485.44682,0.062748895,-7.6873552,-7.6246064,-16971.386,-18632.043,-16086.653,-16195.463,3003.4679,490.17439,-693.53003,349.40469,389.58142,349.40785,5953.1594,0.11499998941042944,43046943.0,196245.890625,47561944.0,8715.3720703125,619.9607543945312,6.933090329170227,0.0,9342.265869140625,5388.032780193219
116000.0,488.2981,0.063117451,-7.6874394,-7.6243219,-16521.631,-18168.775,-15637.584,-15758.536,2559.4983,450.64994,-734.1859,349.40469,389.93082,349.40785,5291.0153,0.11599998832285174,43022912.0,198644.90625,47604600.0,8613.9609375,626.8221435546875,5.434659481048584,0.0,9246.2177734375,4781.783391574629
117000.0,491.64606,0.06355021,-7.6875933,-7.6240431,-16142.778,-17727.517,-15261.175,-15439.643,2125.4422,394.27876,-728.96229,349.40469,390.28022,349.40785,4613.8453,0.11699998723527427,43007270.0,200261.69140625,47647257.0,8469.634155273438,651.8322296142578,4.075994610786438,1.5564929246902466,9127.099365234375,4164.539640872317
118000.0,494.3641,0.063901543,-7.687671,-7.6237695,-15774.261,-17360.79,-14911.137,-15050.855,1654.2728,366.10847,-753.44318,349.40469,390.62962,349.40785,3999.1312,0.1179999861476968,42991628.0,201878.4765625,47689914.0,8325.307373046875,676.8423156738281,2.717329740524292,3.112985849380493,9007.98095703125,3605.1472198837178
119000.0,497.20661,0.064268966,-7.6877703,-7.6235014,-15405.041,-16942.284,-14576.277,-14696.562,1202.8572,261.89552,-778.13853,349.40469,390.97902,349.40785,3419.17,0.11899998506011933,42975986.0,203495.26171875,47732571.0,8180.9805908203125,701.8524017333984,1.358664870262146,4.66947877407074,8888.862548828125,3078.4472525399897
120000.0,500.40617,0.064682541,-7.6879218,-7.6232393,-14954.503,-16409.687,-14153.362,-14300.46,812.14658,220.79394,-798.9196,349.40469,391.32842,349.40785,2969.9416,0.11999998397254186,42960344.0,205112.046875,47775228.0,8036.65380859375,726.8624877929688,0.0,6.225971698760986,8769.744140625,2670.6248852629315
121000.0,502.63242,0.064970307,-7.6879543,-7.622984,-14444.982,-15825.953,-13700.704,-13808.289,429.80398,166.94514,-804.02339,349.40469,391.67782,349.40785,2622.3618,0.12099998288496439,42941123.0,206408.93359375,47817884.0,7994.0335693359375,712.7174682617188,0.0,4.66947877407074,8711.4208984375,2354.9172649358848
122000.0,505.07729,0.065286331,-7.688023,-7.6227366,-13905.497,-15227.809,-13194.122,-13294.558,90.043118,96.629437,-767.82059,349.40469,392.02722,349.40785,2400.5612,0.12199998179738669,42921902.0,207705.8203125,47860540.0,7951.413330078125,698.5724487304688,0.0,3.112985849380493,8653.09765625,2152.851860246508
123000.0,506.93458,0.065526404,-7.6880237,-7.6224973,-13402.236,-14636.779,-12723.661,-12846.267,-198.18137,-12.283288,-771.54076,349.40469,392.37662,349.40785,2311.8392,0.12299998070980922,42902681.0,209002.70703125,47903196.0,7908.7930908203125,684.4274291992188,0.0,1.5564929246902466,8594.7744140625,2070.511114141428
124000.0,508.45715,0.065723212,-7.6879888,-7.6222656,-12980.969,-14128.138,-12341.05,-12473.719,-412.79702,-87.019937,-751.8531,349.40469,392.72602,349.40785,2281.2197,0.12399997962223175,42883460.0,210299.59375,47945852.0,7866.1728515625,670.2824096679688,0.0,0.0,8536.451171875,2040.355727877398
125000.0,510.40008,0.065974356,-7.6880145,-7.6220401,-12634.16,-13726.594,-12025.705,-12150.183,-504.42379,-184.56881,-744.24634,349.40469,393.07542,349.40785,2285.6134,0.12499997853465428,42875181.0,211379.546875,47988509.0,7874.1239013671875,671.5605316162109,0.0,3.458731174468994,8549.14013671875,2042.0740352867685
126000.0,511.79292,0.066154393,-7.6879738,-7.6218195,-12355.454,-13405.263,-11785.758,-11875.342,-512.6433,-264.19851,-752.04257,349.40469,393.42482,349.40785,2276.0175,0.1259999774470768,42866902.0,212459.5,48031166.0,7882.074951171875,672.8386535644531,0.0,6.917462348937988,8561.8291015625,2031.3023240531993
127000.0,513.47514,0.066371838,-7.6879732,-7.6216014,-12219.301,-13233.505,-11653.769,-11770.628,-479.67379,-304.68362,-753.92513,349.40469,393.77422,349.40785,2235.7509,0.1269999763594991,42858623.0,213539.453125,48073823.0,7890.0260009765625,674.1167755126953,0.0,10.376193523406982,8574.51806640625,1993.209588199605
128000.0,514.04063,0.066444933,-7.6878295,-7.6213846,-12154.848,-13217.83,-11543.598,-11703.115,-326.95251,-305.67989,-787.26969,349.40469,394.12362,349.40785,2240.9431,0.12799997527192164,42850344.0,214619.40625,48116480.0,7897.97705078125,675.3948974609375,0.0,13.834924697875977,8587.20703125,1995.68178552185
129000.0,516.45546,0.066757074,-7.6879242,-7.6211671,-12246.943,-13353.587,-11564.798,-11822.445,-80.387458,-290.11406,-746.67095,349.40469,394.47303,349.40785,2179.3827,0.12900000280480528,42856785.0,215471.85546875,48159137.0,7908.010986328125,684.9037780761719,0.0,12.027987837791443,8604.94287109375,1939.4312611253708
130000.0,517.60742,0.066905976,-7.6878533,-7.6209474,-12412.343,-13571.289,-11740.725,-11925.015,139.48256,-321.95309,-751.77085,349.40469,394.82243,349.40785,2261.0571,0.1300000017172278,42863226.0,216324.3046875,48201794.0,7918.044921875,694.4126586914062,0.0,10.22105097770691,8622.6787109375,2010.6347385370057
131000.0,518.47962,0.067018717,-7.6877423,-7.6207236,-12672.579,-13925.41,-11955.852,-12136.474,465.01656,-330.45949,-787.22716,349.40469,395.17183,349.40785,2528.1513,0.13100000062965012,42869667.0,217176.75390625,48244451.0,7928.078857421875,703.9215393066406,0.0,8.414114117622375,8640.41455078125,2246.4967910323426
132000.0,519.83122,0.067193425,-7.6876887,-7.6204952,-12929.596,-14241.853,-12183.384,-12363.549,730.14307,-279.6718,-804.39644,349.40469,395.52123,349.40785,2770.2036,0.13199999954207264,42876108.0,218029.203125,48287108.0,7938.11279296875,713.430419921875,0.0,6.607177257537842,8658.150390625,2459.777643663994
133000.0,520.80159,0.067318856,-7.6875812,-7.6202624,-13151.113,-14562.085,-12364.659,-12526.594,997.48298,-190.25124,-837.84271,349.40469,395.87063,349.40785,3114.2429,0.13299999845449517,42879030.0,218959.43359375,48329763.0,7882.5965576171875,725.1266021728516,0.0,4.955382943153381,8612.67822265625,2763.0119919352182
134000.0,521.76267,0.067443085,-7.6874696,-7.6200265,-13263.608,-14671.621,-12466.568,-12652.634,1280.9636,-171.35992,-798.39914,349.40469,396.22003,349.40785,3377.8117,0.1339999973669177,42881952.0,219889.6640625,48372418.0,7827.080322265625,736.8227844238281,0.0,3.303588628768921,8567.2060546875,2994.416346613858
135000.0,523.09859,0.067615765,-7.6874049,-7.6197891,-13300.967,-14744.775,-12475.154,-12682.971,1500.4392,-120.42492,-809.76182,349.40469,396.56943,349.40785,3672.5064,0.13499999627934023,42884874.0,220819.89453125,48415073.0,7771.5640869140625,748.5189666748047,0.0,1.6517943143844604,8521.73388671875,3253.015320831874
136000.0,523.88478,0.067717389,-7.6872686,-7.6195512,-13291.229,-14754.122,-12442.413,-12677.153,1655.8068,-105.76844,-773.344,349.40469,396.91883,349.40785,3861.2538,0.13599999519176253,42887796.0,221750.125,48457728.0,7716.0478515625,760.2151489257812,0.0,0.0,8476.26171875,3417.4252923831837
137000.0,525.11703,0.067876669,-7.6871902,-7.6193135,-13208.388,-14676.93,-12360.261,-12587.973,1810.0499,-48.669803,-770.85979,349.40469,397.26823,349.40785,4063.2372,0.13699999410418506,42879825.0,222799.88671875,48500385.0,7728.624267578125,758.5136108398438,0.8434951305389404,0.0,8487.98095703125,3592.361175472937
138000.0,525.8729,0.067974373,-7.6870523,-7.619078,-13012.578,-14500.841,-12144.874,-12392.019,1889.3727,4.2715782,-762.67038,349.40469,397.61763,349.40785,4181.3439,0.1379999930166076,42871854.0,223849.6484375,48543042.0,7741.20068359375,756.8120727539062,1.6869902610778809,0.0,8499.7001953125,3692.845726573761
139000.0,527.55394,0.068191665,-7.6870373,-7.6188456,-12765.366,-14187.668,-11927.247,-12181.182,1952.065,100.35775,-757.82391,349.40469,397.96703,349.40785,4217.1985,0.13899999192903012,42863883.0,224899.41015625,48585699.0,7753.777099609375,755.1105346679688,2.5304853916168213,0.0,8511.41943359375,3720.5496022970774
140000.0,527.97263,0.068245784,-7.6868636,-7.6186178,-12479.58,-13863.191,-11664.896,-11910.652,1952.1755,128.70238,-769.02763,349.40469,398.31643,349.40785,4196.3704,0.13999999084145265,42855912.0,225949.171875,48628356.0,7766.353515625,753.4089965820312,3.3739805221557617,0.0,8523.138671875,3698.238957159168
141000.0,529.27762,0.068414467,-7.6868084,-7.6183939,-12225.438,-13567.652,-11401.143,-11707.519,1894.3262,167.03108,-758.95645,349.40469,398.66583,349.40785,4086.6882,0.14099998975387495,42848181.0,227021.75,48671012.0,7721.1077880859375,749.0204925537109,4.2136043310165405,0.0,8474.34375,3597.771003491035
142000.0,530.2802,0.068544061,-7.6867178,-7.6181737,-11987.179,-13267.348,-11223.117,-11471.071,1798.0641,162.22824,-737.67395,349.40469,399.01523,349.40785,3891.5335,0.14199998866629726,42840450.0,228094.328125,48713668.0,7675.862060546875,744.6319885253906,5.053228139877319,0.0,8425.548828125,3422.346400399884
143000.0,531.76273,0.068735693,-7.6866922,-7.6179565,-11861.839,-13117.556,-11131.13,-11336.832,1667.3626,134.28009,-770.07132,349.40469,399.36463,349.40785,3708.5046,0.1429999875787198,42832719.0,229166.90625,48756324.0,7630.6163330078125,740.2434844970703,5.892851948738098,0.0,8376.75390625,3257.943224801103
144000.0,532.34717,0.068811237,-7.6865527,-7.6177415,-11725.252,-12924.88,-11021.049,-11229.826,1498.9998,163.25647,-798.34209,349.40469,399.71403,349.40785,3464.635,0.14399998649114232,42824988.0,230239.484375,48798980.0,7585.37060546875,735.85498046875,6.732475757598877,0.0,8327.958984375,3040.492901683191
145000.0,534.09389,0.069037019,-7.6865656,-7.6175286,-11679.037,-12836.252,-11000.012,-11200.847,1288.3273,132.55507,-801.7394,349.40469,400.06343,349.40785,3162.8724,0.14499998540356485,42824214.0,231187.4296875,48841637.0,7582.5838623046875,746.4619445800781,7.340502619743347,0.0,8336.387451171875,2773.1978867189405
146000.0,535.10219,0.069167351,-7.686484,-7.6173166,-11632.648,-12772.314,-10968.684,-11156.947,1044.9915,93.662393,-803.74009,349.40469,400.41283,349.40785,2861.6955,0.14599998431598737,42823440.0,232135.375,48884294.0,7579.797119140625,757.0689086914062,7.948529481887817,0.0,8344.81591796875,2506.8919997600865
147000.0,535.49664,0.069218338,-7.6863235,-7.6171051,-11666.06,-12781.925,-11019.01,-11197.246,810.25139,48.332248,-792.25161,349.40469,400.76223,349.40785,2585.5255,0.14699998322840968,42822666.0,233083.3203125,48926951.0,7577.0103759765625,767.6758728027344,8.556556344032288,0.0,8353.244384765625,2262.9469578225508
148000.0,536.1998,0.069309229,-7.6862022,-7.6168929,-11718.332,-12844.227,-11088.411,-11222.358,603.6995,46.881758,-769.11597,349.40469,401.11163,349.40785,2395.8751,0.1479999821408322,42821892.0,234031.265625,48969608.0,7574.2236328125,778.2828369140625,9.164583206176758,0.0,8361.6728515625,2095.093446075558
149000.0,537.15674,0.069432924,-7.6861129,-7.61668,-11763.663,-12898.403,-11127.114,-11265.472,426.81002,49.336595,-781.30286,349.40469,401.46103,349.40785,2301.4436,0.14899998105325474,42821287.0,234995.875,49012265.0,7586.0579833984375,772.5216827392578,9.04816198348999,0.0,8367.629150390625,2010.7370453071942
150000.0,538.06553,0.069550394,-7.6860164,-7.616466,-11785.355,-12918.99,-11137.406,-11299.67,328.21726,21.023385,-750.70485,349.40469,401.81043,349.40785,2219.5635,0.14999997996567727,42820682.0,235960.484375,49054922.0,7597.892333984375,766.7605285644531,8.931740760803223,0.0,8373.58544921875,1937.4859634331292
151000.0,539.03193,0.06967531,-7.6859278,-7.6162525,-11752.638,-12883.309,-11101.982,-11272.622,240.53289,-24.084581,-764.12879,349.40469,402.15983,349.40785,2196.6487,0.1509999788780998,42820077.0,236925.09375,49097579.0,7609.7266845703125,760.9993743896484,8.815319538116455,0.0,8379.541748046875,1915.790317806707
152000.0,540.10424,0.069813917,-7.6858533,-7.6160393,-11717.979,-12883.164,-11042.146,-11228.628,185.7314,-84.583263,-794.19553,349.40469,402.50923,349.40785,2257.8745,0.1519999777905221,42819472.0,237889.703125,49140236.0,7621.56103515625,755.2382202148438,8.698898315429688,0.0,8385.498046875,1967.450745093369
153000.0,541.00782,0.069930715,-7.6857573,-7.6158266,-11612.666,-12795.749,-10920.286,-11121.963,183.67611,-103.95266,-792.95308,349.40469,402.85863,349.40785,2280.2965,0.15299997670294463,42813989.0,238945.86328125,49182891.0,7614.3665771484375,757.0458526611328,6.524173736572266,0.0,8377.9365234375,1985.0111956155342
154000.0,542.33681,0.0701025,-7.6857176,-7.6156151,-11488.485,-12656.522,-10803.342,-11005.591,172.16194,-109.78695,-780.79149,349.40469,403.20803,349.40785,2248.191,0.15399997561536716,42808506.0,240002.0234375,49225546.0,7607.172119140625,758.8534851074219,4.349449157714844,0.0,8370.375,1955.116920646162
155000.0,543.02659,0.070191661,-7.6855972,-7.6154055,-11363.28,-12540.94,-10672.553,-10876.348,194.51972,-139.18033,-754.91434,349.40469,403.55744,349.40785,2243.4234,0.1550000031482508,42803023.0,241058.18359375,49268201.0,7599.9776611328125,760.6611175537109,2.174724578857422,0.0,8362.8134765625,1949.0320620584098
156000.0,544.28654,0.070354521,-7.6855526,-7.6151981,-11208.631,-12355.335,-10512.544,-10758.013,274.0172,-131.4886,-781.50018,349.40469,403.90684,349.40785,2261.2248,0.15600000206067333,42797540.0,242114.34375,49310856.0,7592.783203125,762.46875,0.0,0.0,8355.251953125,1962.546722510597
157000.0,544.83635,0.070425589,-7.6854185,-7.6149929,-10998.754,-12138.698,-10324.457,-10533.107,362.93247,-148.88444,-730.5791,349.40469,404.25624,349.40785,2240.3926,0.15700000097309563,42789898.0,243265.1328125,49353514.0,7579.681884765625,748.6794586181641,0.0,0.0,8328.362060546875,1942.4386039452997
158000.0,546.78781,0.070677836,-7.6854685,-7.6147907,-10801.154,-11913.705,-10118.257,-10371.5,481.02836,-141.60628,-755.06215,349.40469,404.60564,349.40785,2301.6864,0.15799999988551816,42782256.0,244415.921875,49396172.0,7566.58056640625,734.8901672363281,0.0,0.0,8301.47216796875,1993.5013748943622
159000.0,547.7708,0.070804897,-7.6853966,-7.6145917,-10621.568,-11709.268,-9967.6768,-10187.759,656.99355,-122.75428,-748.07776,349.40469,404.95504,349.40785,2391.0814,0.1589999987979407,42774614.0,245566.7109375,49438830.0,7553.479248046875,721.1008758544922,0.0,0.0,8274.582275390625,2068.770315308425
160000.0,548.25493,0.070867476,-7.6852622,-7.6143947,-10517.734,-11539.003,-9915.1696,-10099.028,800.57437,-122.13719,-736.12811,349.40469,405.30444,349.40785,2442.3855,0.15999999771036322,42766972.0,246717.5,49481488.0,7540.3779296875,707.3115844726562,0.0,0.0,8247.6923828125,2110.959805649054
161000.0,548.97545,0.07096061,-7.6851604,-7.6141998,-10377.891,-11402.49,-9756.359,-9974.8249,931.94914,-68.97279,-777.84769,349.40469,405.65384,349.40785,2613.9726,0.16099999662278575,42760836.0,247718.43359375,49524143.0,7581.44970703125,727.5109252929688,1.1412039995193481,0.0,8310.104248046875,2256.9931933419543
162000.0,550.28646,0.071130072,-7.685137,-7.614007,-10235.49,-11195.498,-9627.6681,-9883.304,1088.5002,-46.849653,-771.41511,349.40469,406.00324,349.40785,2732.9422,0.16199999553520805,42754700.0,248719.3671875,49566798.0,7622.521484375,747.7102661132812,2.2824079990386963,0.0,8372.51611328125,2357.3466230023573
163000.0,551.59643,0.071299398,-7.6851164,-7.613817,-10064.689,-10998.438,-9484.9043,-9710.7261,1215.2108,-7.4812346,-754.0575,349.40469,406.35264,349.40785,2852.3985,0.16299999444763058,42748564.0,249720.30078125,49609453.0,7663.59326171875,767.9096069335938,3.423611998558044,0.0,8434.927978515625,2457.917442281696
164000.0,551.78773,0.071324126,-7.6849533,-7.6136292,-9956.5729,-10854.293,-9392.7192,-9622.7067,1314.748,-21.687439,-744.81137,349.40469,406.70204,349.40785,2950.3014,0.1639999933600531,42742428.0,250721.234375,49652108.0,7704.6650390625,788.1089477539062,4.564815998077393,0.0,8497.33984375,2539.7319519203334
165000.0,553.32401,0.071522706,-7.6849664,-7.6134437,-9814.3127,-10670.636,-9272.907,-9499.3954,1364.5405,-17.879015,-746.38811,349.40469,407.05144,349.40785,2991.075,0.16499999227247564,42737389.0,251625.73828125,49694765.0,7675.750732421875,764.7270812988281,3.4236119985580444,0.0,8443.902099609375,2572.3179454249353
166000.0,553.63772,0.071563256,-7.6848232,-7.6132599,-9740.6989,-10578.804,-9201.6567,-9441.6363,1388.7373,3.6912533,-748.56882,349.40469,407.40084,349.40785,3015.0485,0.16599999118489817,42732350.0,252530.2421875,49737422.0,7646.83642578125,741.34521484375,2.2824079990386963,0.0,8390.46435546875,2590.405827004363
167000.0,554.51949,0.071677234,-7.6847547,-7.6130775,-9665.9933,-10478.56,-9152.1817,-9367.2381,1378.6756,-8.328302,-722.66822,349.40469,407.75024,349.40785,2964.7054,0.16699999009732047,42727311.0,253434.74609375,49780079.0,7617.922119140625,717.9633483886719,1.1412039995193486,0.0,8337.026611328125,2544.67032182049
168000.0,555.50404,0.071804496,-7.6847016,-7.6128971,-9489.9279,-10264.675,-9013.6802,-9191.4286,1319.2407,0.4658164,-756.86926,349.40469,408.09964,349.40785,2883.3941,0.167999989009743,42722272.0,254339.25,49822736.0,7589.0078125,694.5814819335938,0.0,0.0,8283.5888671875,2472.4685337110996
169000.0,556.54004,0.07193841,-7.6846568,-7.6127184,-9419.6126,-10203.123,-8905.95,-9149.765,1275.8426,-29.256702,-784.35578,349.40469,408.44904,349.40785,2856.1102,0.16899998792216553,42719578.0,255235.19921875,49865394.0,7585.44921875,716.5168304443359,1.581831932067871,0.0,8303.547607421875,2446.823592038511
170000.0,557.41707,0.072051775,-7.6845926,-7.6125408,-9363.6978,-10107.431,-8886.8426,-9096.8198,1188.6876,-19.795673,-732.9839,349.40469,408.79844,349.40785,2670.1193,0.16999998683458806,42716884.0,256131.1484375,49908052.0,7581.890625,738.4521789550781,3.163663864135742,0.0,8323.50634765625,2285.386262005602
171000.0,558.22047,0.072155623,-7.6845199,-7.6123642,-9323.2735,-10084.539,-8842.0198,-9043.2613,1076.3981,-54.324943,-739.19401,349.40469,409.14784,349.40785,2541.315,0.17099998574701036,42714190.0,257027.09765625,49950710.0,7578.33203125,760.3875274658203,4.745495796203613,0.0,8343.465087890625,2173.1465230394124
172000.0,559.19504,0.072281596,-7.6844697,-7.6121881,-9283.8214,-10030.24,-8829.8365,-8991.3881,969.03633,-59.743565,-747.89335,349.40469,409.49724,349.40785,2403.9499,0.1719999846594329,42711496.0,257923.046875,49993368.0,7574.7734375,782.3228759765625,6.327327728271484,0.0,8363.423828125,2053.7983465736975
173000.0,560.05602,0.072392886,-7.6844053,-7.6120124,-9242.8172,-10021.74,-8758.1364,-8948.5756,849.82329,-52.958061,-764.23456,349.40469,409.84664,349.40785,2306.4033,0.1729999835718552,42709056.0,258930.56640625,50036023.0,7534.396484375,785.8561706542969,6.615288496017456,0.0,8326.8681640625,1968.6678075570633
174000.0,560.72532,0.0724794,-7.6843159,-7.6118365,-9241.8925,-10035.402,-8743.4645,-8946.8107,731.50428,-37.859161,-771.48413,349.40469,410.19604,349.40785,2200.6592,0.17399998248427773,42706616.0,259938.0859375,50078678.0,7494.01953125,789.3894653320312,6.903249263763428,0.0,8290.3125,1876.7010463268857
175000.0,561.4525,0.072573395,-7.6842345,-7.6116611,-9188.1561,-9998.62,-8671.2684,-8894.5798,610.75927,-63.172847,-787.56615,349.40469,410.54544,349.40785,2123.0054,0.17499998139670025,42704176.0,260945.60546875,50121333.0,7453.642578125,792.9227600097656,7.191210031509399,0.0,8253.7568359375,1808.8344986864256
176000.0,562.30926,0.07268414,-7.6841702,-7.6114861,-9139.5109,-9938.018,-8636.377,-8844.1378,498.98043,-83.818431,-778.64688,349.40469,410.89484,349.40785,2013.4294,0.17599998030912278,42701736.0,261953.125,50163988.0,7413.265625,796.4560546875,7.479170799255371,0.0,8217.201171875,1713.9173762149533
177000.0,562.95178,0.072767192,-7.6840785,-7.6113113,-9155.9073,-9979.1201,-8632.5082,-8856.0937,384.28766,-141.25039,-750.50543,349.40469,411.24424,349.40785,1937.7648,0.1769999792215453,42698319.0,262899.71875,50206645.0,7418.8892822265625,783.6121368408203,10.414868593215942,0.0,8212.916259765625,1647.975075358475
178000.0,564.00524,0.072903363,-7.68404,-7.6111366,-9102.449,-9899.0437,-8586.6593,-8821.644,333.99539,-142.62204,-737.53759,349.40469,411.59364,349.40785,1869.9592,0.17799997813396762,42694902.0,263846.3125,50249302.0,7424.512939453125,770.7682189941406,13.350566387176514,0.0,8208.63134765625,1588.8325132953767
179000.0,565.06519,0.073040372,-7.6840034,-7.6109631,-8990.7935,-9807.7283,-8470.5902,-8694.0621,224.3669,-167.07125,-740.79714,349.40469,411.94304,349.40785,1849.3692,0.17899997704639015,42691485.0,264792.90625,50291959.0,7430.1365966796875,757.9243011474609,16.286264181137085,0.0,8204.346435546875,1569.8795400127883
180000.0,565.7308,0.073126408,-7.6839176,-7.6107912,-8853.309,-9620.3073,-8367.3035,-8572.3161,194.09982,-152.82433,-768.00333,349.40469,412.29244,349.40785,1818.7205,0.17999997595881267,42688068.0,265739.5,50334616.0,7435.76025390625,745.0803833007812,19.221961975097656,0.0,8200.0615234375,1542.430846735654
181000.0,566.21908,0.073189524,-7.6838108,-7.6106213,-8743.1348,-9482.7129,-8246.9739,-8499.7176,158.86778,-156.80589,-732.44492,349.40469,412.64184,349.40785,1742.8462,0.1809999748712352,42681415.0,266679.5859375,50377271.0,7436.939208984375,742.3206024169922,17.003167629241943,0.0,8196.262451171875,1476.6012621718432
182000.0,567.45207,0.0733489,-7.6838026,-7.6104537,-8587.5577,-9316.5452,-8101.6251,-8344.5028,171.65707,-148.08414,-748.74354,349.40469,412.99125,349.40785,1753.847,0.18200000240411862,42674762.0,267619.671875,50419926.0,7438.1181640625,739.5608215332031,14.78437328338623,0.0,8192.46337890625,1484.433025733001
183000.0,568.17583,0.073442453,-7.683731,-7.6102886,-8442.6007,-9120.8552,-7964.8803,-8242.0666,203.6593,-139.17695,-715.55275,349.40469,413.34065,349.40785,1676.687,0.18300000131654115,42668109.0,268559.7578125,50462581.0,7439.297119140625,736.8010406494141,12.565578937530518,0.0,8188.664306640625,1417.705203681179
184000.0,569.03039,0.073552914,-7.6836787,-7.6101257,-8283.7399,-8945.4349,-7832.5145,-8073.2702,238.62972,-154.89317,-721.82923,349.40469,413.69005,349.40785,1683.6073,0.18400000022896368,42661456.0,269499.84375,50505236.0,7440.47607421875,734.041259765625,10.346784591674805,0.0,8184.865234375,1422.1325240461958
185000.0,570.01665,0.073680398,-7.6836458,-7.6099654,-8138.1696,-8778.3151,-7693.3329,-7942.8609,360.37123,-139.58219,-735.28816,349.40469,414.03945,349.40785,1743.1911,0.1849999991413862,42656417.0,270390.359375,50547894.0,7407.268310546875,737.0001373291016,7.7600884437561035,0.0,8152.02978515625,1471.0461819099467
186000.0,570.5263,0.073746276,-7.6835536,-7.6098074,-8008.544,-8615.4859,-7581.8448,-7828.3011,442.0935,-128.49939,-727.0576,349.40469,414.38885,349.40785,1759.58,0.18599999805380873,42651378.0,271280.875,50590552.0,7374.060546875,739.9590148925781,5.173392295837402,0.0,8119.1943359375,1483.4491566970842
187000.0,571.39829,0.073858989,-7.6835101,-7.6096511,-7890.1336,-8479.8141,-7480.2325,-7710.3544,542.03749,-160.23706,-696.70577,349.40469,414.73825,349.40785,1799.0921,0.18699999696623126,42646339.0,272171.390625,50633210.0,7340.852783203125,742.9178924560547,2.586696147918701,0.0,8086.35888671875,1515.3037223755298
188000.0,572.06014,0.07394454,-7.6834412,-7.6094967,-7848.8468,-8406.1765,-7475.0209,-7665.343,607.78562,-123.55863,-729.56948,349.40469,415.08765,349.40785,1864.6391,0.18799999587865357,42641300.0,273061.90625,50675868.0,7307.64501953125,745.8767700195312,0.0,0.0,8053.5234375,1569.0039143449897
189000.0,572.77832,0.074037371,-7.6833805,-7.6093431,-7778.3836,-8291.0943,-7434.5067,-7609.5496,671.7929,-125.37943,-714.6627,349.40469,415.43705,349.40785,1883.5467,0.1889999947910761,42638845.0,273919.59375,50718525.0,7299.7843017578125,745.2470550537109,2.9939165115356445,0.0,8048.0264892578125,1583.489578838531
190000.0,573.53835,0.074135613,-7.6833264,-7.6091907,-7685.0971,-8206.3422,-7329.0581,-7519.8911,731.20661,-92.750783,-728.05061,349.40469,415.78645,349.40785,1964.332,0.18999999370349863,42636390.0,274777.28125,50761182.0,7291.923583984375,744.6173400878906,5.987833023071289,0.0,8042.529541015625,1649.9226759826045
191000.0,573.96095,0.074190238,-7.6832293,-7.609039,-7680.1007,-8191.9507,-7340.4597,-7507.8916,822.05488,-65.896034,-717.66238,349.40469,416.13585,349.40785,2048.4069,0.19099999261592115,42633935.0,275634.96875,50803839.0,7284.0628662109375,743.9876251220703,8.981749534606934,0.0,8037.0325927734375,1718.996996037081
192000.0,575.0738,0.074334086,-7.6832215,-7.6088874,-7650.0911,-8179.6461,-7278.9981,-7491.6292,859.58837,-76.867428,-689.6856,349.40469,416.48525,349.40785,2079.9697,0.19199999152834368,42631480.0,276492.65625,50846496.0,7276.2021484375,743.35791015625,11.975666046142578,0.0,8031.53564453125,1743.9193187698913
193000.0,575.59911,0.074401987,-7.6831383,-7.6087363,-7643.4733,-8151.5824,-7275.366,-7503.4716,916.55897,-21.673238,-702.20784,349.40469,416.83465,349.40785,2149.6175,0.192999990440766,42630337.0,277296.7890625,50889152.0,7231.6671142578125,748.8996429443359,10.590947389602661,0.0,7991.1575927734375,1800.7554625020573
194000.0,576.13648,0.074471447,-7.6830566,-7.6085852,-7668.8774,-8152.054,-7323.6024,-7530.9759,925.28698,-44.895205,-700.56611,349.40469,417.18405,349.40785,2145.7936,0.19399998935318852,42629194.0,278100.921875,50931808.0,7187.132080078125,754.4413757324219,9.206228733062744,0.0,7950.779541015625,1795.9985174364592
195000.0,576.81209,0.074558777,-7.6829927,-7.608434,-7645.7123,-8186.175,-7283.4163,-7467.5455,882.44782,-40.263302,-723.89055,349.40469,417.53345,349.40785,2143.761,0.19499998826561105,42628051.0,278905.0546875,50974464.0,7142.5970458984375,759.9831085205078,7.821510076522827,0.0,7910.4014892578125,1792.7477028460958
196000.0,577.28104,0.074619394,-7.6829023,-7.6082829,-7602.9597,-8131.5631,-7248.1401,-7429.1759,867.71134,-35.869109,-718.22983,349.40469,417.88285,349.40785,2112.6926,0.19599998717803357,42626908.0,279709.1875,51017120.0,7098.06201171875,765.5248413085938,6.43679141998291,0.0,7870.0234375,1765.2418069165956
197000.0,578.21131,0.07473964,-7.6828722,-7.6081325,-7550.5518,-8070.2078,-7202.7216,-7378.726,843.95844,-45.842662,-712.79629,349.40469,418.23225,349.40785,2073.2019,0.1969999860904561,42623777.0,280576.8671875,51059776.0,7084.661865234375,767.2985687255859,7.923914909362793,0.0,7859.884033203125,1730.6714283583283
198000.0,578.77268,0.074812203,-7.6827953,-7.6079831,-7439.4648,-7977.0455,-7070.6544,-7270.6944,788.33287,-57.416594,-741.61264,349.40469,418.58165,349.40785,2050.4903,0.1979999850028784,42620646.0,281444.546875,51102432.0,7071.26171875,769.0722961425781,9.411038398742676,0.0,7849.74462890625,1710.1577710182912
199000.0,579.63276,0.074923377,-7.6827578,-7.6078345,-7395.7183,-7950.1275,-7012.2791,-7224.7483,701.50173,-15.583705,-699.43713,349.40469,418.93105,349.40785,1915.7553,0.19899998391530094,42617515.0,282312.2265625,51145088.0,7057.861572265625,770.8460235595703,10.898161888122559,0.0,7839.605224609375,1596.3357074305845
200000.0,580.2931,0.075008732,-7.6826953,-7.6076866,-7332.4868,-7854.8204,-6989.4442,-7153.1958,629.27865,7.2137437,-701.52637,349.40469,419.28045,349.40785,1816.1863,0.19999998282772324,42614384.0,283179.90625,51187744.0,7044.46142578125,772.6197509765625,12.38528537750244,0.0,7829.4658203125,1511.9959262853858
